Homework4
…
#Read the data from the URL 
glass_data <- read_csv("https://www4.stat.ncsu.edu/~online/datasets/glass.data", col_names = FALSE, show_col_types = FALSE)

#Add column names

colnames(glass_data) <- c("ID", "RI", "Na", "Mg", "Al", "Si", "K", "Ca", "Ba", "Fe", "Type_of_glass")

#print the tibble

glass_data

# A tibble: 214 × 11
      ID    RI    Na    Mg    Al    Si     K    Ca    Ba    Fe Type_of_glass
   <dbl> <dbl> <dbl> <dbl> <dbl> <dbl> <dbl> <dbl> <dbl> <dbl>         <dbl>
 1     1  1.52  13.6  4.49  1.1   71.8  0.06  8.75     0  0                1
 2     2  1.52  13.9  3.6   1.36  72.7  0.48  7.83     0  0                1
 3     3  1.52  13.5  3.55  1.54  73.0  0.39  7.78     0  0                1
 4     4  1.52  13.2  3.69  1.29  72.6  0.57  8.22     0  0                1
 5     5  1.52  13.3  3.62  1.24  73.1  0.55  8.07     0  0                1
 6     6  1.52  12.8  3.61  1.62  73.0  0.64  8.07     0  0.26             1
 7     7  1.52  13.3  3.6   1.14  73.1  0.58  8.17     0  0                1
 8     8  1.52  13.2  3.61  1.05  73.2  0.57  8.24     0  0                1
 9     9  1.52  14.0  3.58  1.37  72.1  0.56  8.3      0  0                1
10    10  1.52  13    3.6   1.36  73.0  0.57  8.4      0  0.11             1
# ℹ 204 more rows
…
# Print the updated tibble
glass_data

# A tibble: 214 × 11
      ID    RI    Na    Mg    Al    Si     K    Ca    Ba    Fe Type_of_glass    
   <dbl> <dbl> <dbl> <dbl> <dbl> <dbl> <dbl> <dbl> <dbl> <dbl> <chr>            
 1     1  1.52  13.6  4.49  1.1   71.8  0.06  8.75     0  0    building_windows…
 2     2  1.52  13.9  3.6   1.36  72.7  0.48  7.83     0  0    building_windows…
 3     3  1.52  13.5  3.55  1.54  73.0  0.39  7.78     0  0    building_windows…
 4     4  1.52  13.2  3.69  1.29  72.6  0.57  8.22     0  0    building_windows…
 5     5  1.52  13.3  3.62  1.24  73.1  0.55  8.07     0  0    building_windows…
 6     6  1.52  12.8  3.61  1.62  73.0  0.64  8.07     0  0.26 building_windows…
 7     7  1.52  13.3  3.6   1.14  73.1  0.58  8.17     0  0    building_windows…
 8     8  1.52  13.2  3.61  1.05  73.2  0.57  8.24     0  0    building_windows…
 9     9  1.52  14.0  3.58  1.37  72.1  0.56  8.3      0  0    building_windows…
10    10  1.52  13    3.6   1.36  73.0  0.57  8.4      0  0.11 building_windows…
# ℹ 204 more rows
…
# Print the updated tibble
glass_data

# A tibble: 38 × 11
      ID    RI    Na    Mg    Al    Si     K    Ca    Ba    Fe Type_of_glass
   <dbl> <dbl> <dbl> <dbl> <dbl> <dbl> <dbl> <dbl> <dbl> <dbl> <chr>        
 1   177  1.52  14    2.39  1.56  72.4  0     9.57  0        0 tableware    
 2   178  1.52  13.8  2.41  1.19  72.8  0     9.77  0        0 tableware    
 3   179  1.52  14.5  2.24  1.62  72.4  0     9.26  0        0 tableware    
 4   180  1.52  14.1  2.19  1.66  72.7  0     9.32  0        0 tableware    
 5   181  1.51  14.4  1.74  1.54  74.6  0     7.59  0        0 tableware    
 6   182  1.52  15.0  0.78  1.74  72.5  0     9.95  0        0 tableware    
 7   183  1.52  14.2  0     2.09  72.7  0    10.9   0        0 tableware    
 8   184  1.52  14.6  0     0.56  73.5  0    11.2   0        0 tableware    
 9   185  1.51  17.4  0     0.34  75.4  0     6.65  0        0 tableware    
10   186  1.51  13.7  3.2   1.81  72.8  1.76  5.43  1.19     0 headlamps    
# ℹ 28 more rows

Yeast Data

Read this data into R directly from the URL using functions from the tidyverse. Notice that the data doesn’t include column names - add those (in a manner of your choosing). Print out the tibble (just call the object name).

#Read the data from the URL
yeast_data <- read_table("https://www4.stat.ncsu.edu/~online/datasets/yeast.data", show_col_types = FALSE)

# Add column names
colnames(yeast_data) <- c("seq_name", "mcg", "gvh", "alm", "mit", "erl", "pox", "vac", "nuc", "class")

#print out the tibble
yeast_data

# A tibble: 1,483 × 10
   seq_name     mcg   gvh   alm   mit   erl   pox   vac   nuc class
   <chr>      <dbl> <dbl> <dbl> <dbl> <dbl> <dbl> <dbl> <dbl> <chr>
 1 ADT2_YEAST  0.43  0.67  0.48  0.27   0.5   0    0.53  0.22 MIT  
 2 ADT3_YEAST  0.64  0.62  0.49  0.15   0.5   0    0.53  0.22 MIT  
 3 AAR2_YEAST  0.58  0.44  0.57  0.13   0.5   0    0.54  0.22 NUC  
 4 AATM_YEAST  0.42  0.44  0.48  0.54   0.5   0    0.48  0.22 MIT  
 5 AATC_YEAST  0.51  0.4   0.56  0.17   0.5   0.5  0.49  0.22 CYT  
 6 ABC1_YEAST  0.5   0.54  0.48  0.65   0.5   0    0.53  0.22 MIT  
 7 BAF1_YEAST  0.48  0.45  0.59  0.2    0.5   0    0.58  0.34 NUC  
 8 ABF2_YEAST  0.55  0.5   0.66  0.36   0.5   0    0.49  0.22 MIT  
 9 ABP1_YEAST  0.4   0.39  0.6   0.15   0.5   0    0.58  0.3  CYT  
10 ACE1_YEAST  0.43  0.39  0.54  0.21   0.5   0    0.53  0.27 NUC  
# ℹ 1,473 more rows

Start a chain that removes seq_name and nuc columns

Continue your chain to add columns corresponding to the mean and median of each numeric variable (mcg, gvh, alm, mit, erl, pox, and vac) at each class grouping. Use the across() function from deplyr.

# Add columns for the mean and median of each numeric variable at each class grouping
yeast_summary <-  yeast_data %>%
  select(-seq_name, -nuc)   %>%
  group_by(class) %>%
  mutate(across(c(mcg, gvh, alm, mit, erl, pox, vac), list(mean = mean, median = median), .names = "{.col}_{.fn}"))

# Print out the summary tibble
yeast_summary

# A tibble: 1,483 × 22
# Groups:   class [10]
     mcg   gvh   alm   mit   erl   pox   vac class mcg_mean mcg_median gvh_mean
   <dbl> <dbl> <dbl> <dbl> <dbl> <dbl> <dbl> <chr>    <dbl>      <dbl>    <dbl>
 1  0.43  0.67  0.48  0.27   0.5   0    0.53 MIT      0.521       0.51    0.533
 2  0.64  0.62  0.49  0.15   0.5   0    0.53 MIT      0.521       0.51    0.533
 3  0.58  0.44  0.57  0.13   0.5   0    0.54 NUC      0.452       0.45    0.456
 4  0.42  0.44  0.48  0.54   0.5   0    0.48 MIT      0.521       0.51    0.533
 5  0.51  0.4   0.56  0.17   0.5   0.5  0.49 CYT      0.481       0.48    0.470
 6  0.5   0.54  0.48  0.65   0.5   0    0.53 MIT      0.521       0.51    0.533
 7  0.48  0.45  0.59  0.2    0.5   0    0.58 NUC      0.452       0.45    0.456
 8  0.55  0.5   0.66  0.36   0.5   0    0.49 MIT      0.521       0.51    0.533
 9  0.4   0.39  0.6   0.15   0.5   0    0.58 CYT      0.481       0.48    0.470
10  0.43  0.39  0.54  0.21   0.5   0    0.53 NUC      0.452       0.45    0.456
# ℹ 1,473 more rows
# ℹ 11 more variables: gvh_median <dbl>, alm_mean <dbl>, alm_median <dbl>,
#   mit_mean <dbl>, mit_median <dbl>, erl_mean <dbl>, erl_median <dbl>,
#   pox_mean <dbl>, pox_median <dbl>, vac_mean <dbl>, vac_median <dbl>
…
There is an excel version of the white wine data set available at https://www4.stat.ncsu.edu/~online/ datasets/white-wine.xlsx. • Download this file • Place it in a folder you know (such as your working directory for your project) • Import the data from the first sheet using the readxl package • Print out the tibble (just call the object name)

#Install the packages
#install.packages("readxl")

# Load necessary libraries
library(readxl)

#Import the data
white_wine_data <- read_excel("white-wine.xlsx", sheet=1)

# Print out the tibble
white_wine_data

# A tibble: 4,898 × 12
   `fixed acidity` `volatile acidity` `citric acid` `residual sugar` chlorides
             <dbl>              <dbl>         <dbl>            <dbl>     <dbl>
 1               7               0.27          0.36             20.7     0.045
 2              63               0.3           0.34              1.6     0.049
 3              81               0.28          0.4               6.9     0.05 
 4              72               0.23          0.32              8.5     0.058
 5              72               0.23          0.32              8.5     0.058
 6              81               0.28          0.4               6.9     0.05 
 7              62               0.32          0.16              7       0.045
 8               7               0.27          0.36             20.7     0.045
 9              63               0.3           0.34              1.6     0.049
10              81               0.22          0.43              1.5     0.044
# ℹ 4,888 more rows
# ℹ 7 more variables: `free sulfur dioxide` <dbl>,
#   `total sulfur dioxide` <dbl>, density <dbl>, pH <dbl>, sulphates <dbl>,
#   alcohol <dbl>, quality <dbl>

When you print the data set out to the console, you may notice that some of the variable names are surrounded by backticks. This is because they are non-standard (they include a space in them). We can rename them in a number of ways. We’ll do it by reading in the variable names from the 2nd sheet of the same file. • Read in the data from the 2nd sheet. This should return a data frame with one column containing alternative versions of the variable names. • Grab that column and overwrite the current column names (colnames()) of your white wine tibble.

# Read the data from the second sheet
variable_names <- read_excel("white-wine.xlsx", sheet = 2)

# Overwrite the current column names
colnames(white_wine_data) <- variable_names[[1]]

# Print out the tibble to check the new column names
print(white_wine_data)

# A tibble: 4,898 × 12
   fixed_acidity volatile_acidity citric_acid residual_sugar chlorides
           <dbl>            <dbl>       <dbl>          <dbl>     <dbl>
 1             7             0.27        0.36           20.7     0.045
 2            63             0.3         0.34            1.6     0.049
 3            81             0.28        0.4             6.9     0.05 
 4            72             0.23        0.32            8.5     0.058
 5            72             0.23        0.32            8.5     0.058
 6            81             0.28        0.4             6.9     0.05 
 7            62             0.32        0.16            7       0.045
 8             7             0.27        0.36           20.7     0.045
 9            63             0.3         0.34            1.6     0.049
10            81             0.22        0.43            1.5     0.044
# ℹ 4,888 more rows
# ℹ 7 more variables: free_sulfur_dioxide <dbl>, total_sulfur_dioxide <dbl>,
#   density <dbl>, pH <dbl>, sulphates <dbl>, alcohol <dbl>, quality <dbl>

Lastly, add a column to this data set to indicate the wines are white. That is, add a column that has values of ‘white’ for every observation.

# Add a column indicating the type of wine
white_wine_data$type <- "white"

# Print out the tibble to check the new column
white_wine_data

# A tibble: 4,898 × 13
   fixed_acidity volatile_acidity citric_acid residual_sugar chlorides
           <dbl>            <dbl>       <dbl>          <dbl>     <dbl>
 1             7             0.27        0.36           20.7     0.045
 2            63             0.3         0.34            1.6     0.049
 3            81             0.28        0.4             6.9     0.05 
 4            72             0.23        0.32            8.5     0.058
 5            72             0.23        0.32            8.5     0.058
 6            81             0.28        0.4             6.9     0.05 
 7            62             0.32        0.16            7       0.045
 8             7             0.27        0.36           20.7     0.045
 9            63             0.3         0.34            1.6     0.049
10            81             0.22        0.43            1.5     0.044
# ℹ 4,888 more rows
# ℹ 8 more variables: free_sulfur_dioxide <dbl>, total_sulfur_dioxide <dbl>,
#   density <dbl>, pH <dbl>, sulphates <dbl>, alcohol <dbl>, quality <dbl>,
#   type <chr>
…
# Read the red wine data

red_wine <- read_delim("https://www4.stat.ncsu.edu/~online/datasets/red-wine.csv", 
                       delim = ";", locale = locale(decimal_mark = "." ), show_col_types = FALSE)

# Replace the variable names as done above
colnames(red_wine) <- variable_names[[1]]

# Add a column indicating the type of wine
red_wine$type <- "red"

# Print out the tibble to check the new column
print(red_wine)

# A tibble: 1,599 × 13
   fixed_acidity volatile_acidity citric_acid residual_sugar chlorides
           <dbl>            <dbl>       <dbl>          <dbl>     <dbl>
 1           7.4             0.7         0               1.9     0.076
 2           7.8             0.88        0               2.6     0.098
 3           7.8             0.76        0.04            2.3     0.092
 4          11.2             0.28        0.56            1.9     0.075
 5           7.4             0.7         0               1.9     0.076
 6           7.4             0.66        0               1.8     0.075
 7           7.9             0.6         0.06            1.6     0.069
 8           7.3             0.65        0               1.2     0.065
 9           7.8             0.58        0.02            2       0.073
10           7.5             0.5         0.36            6.1     0.071
# ℹ 1,589 more rows
# ℹ 8 more variables: free_sulfur_dioxide <dbl>, total_sulfur_dioxide <dbl>,
#   density <dbl>, pH <dbl>, sulphates <dbl>, alcohol <dbl>, quality <dbl>,
#   type <chr>

Combine these two data sets into one data set. They both have the exact same columns so this is an easy append task! • Use the dplyr::bind_rows() function (see the help) to create one tibble containing all of the wine data.

# Install and load the dplyr package if you haven't already
#install.packages("dplyr")
library(dplyr)

# Combine the two data sets
combined_wine <- bind_rows(white_wine_data, red_wine)

# Print out the combined tibble
print(combined_wine)

# A tibble: 6,497 × 13
   fixed_acidity volatile_acidity citric_acid residual_sugar chlorides
           <dbl>            <dbl>       <dbl>          <dbl>     <dbl>
 1             7             0.27        0.36           20.7     0.045
 2            63             0.3         0.34            1.6     0.049
 3            81             0.28        0.4             6.9     0.05 
 4            72             0.23        0.32            8.5     0.058
 5            72             0.23        0.32            8.5     0.058
 6            81             0.28        0.4             6.9     0.05 
 7            62             0.32        0.16            7       0.045
 8             7             0.27        0.36           20.7     0.045
 9            63             0.3         0.34            1.6     0.049
10            81             0.22        0.43            1.5     0.044
# ℹ 6,487 more rows
# ℹ 8 more variables: free_sulfur_dioxide <dbl>, total_sulfur_dioxide <dbl>,
#   density <dbl>, pH <dbl>, sulphates <dbl>, alcohol <dbl>, quality <dbl>,
#   type <chr>
…
Continue your chain to select only the variables that contain acid, the alcohol variable, the type variable, and the quality variable.

Continue your chain to add the mean and standard deviation of the alcohol variable to the data set for each setting of the quality variable.

# Filter and sort the data
final_wine_data <- combined_wine %>%
  filter(quality > 6.5, alcohol < 132) %>%
  arrange(desc(quality)) %>%
  select(contains("acid"), alcohol, type, quality) %>% #select only required variables
  group_by(quality) %>%
  mutate (mean_alcohol = mean(alcohol), std_alcohol = sd(alcohol)) #get mean and std of alcohol group by quality
# Print out the final data set
print(final_wine_data)

# A tibble: 1,206 × 8
# Groups:   quality [3]
   fixed_acidity volatile_acidity citric_acid alcohol type  quality mean_alcohol
           <dbl>            <dbl>       <dbl>   <dbl> <chr>   <dbl>        <dbl>
 1            91             0.27        0.45     104 white       9        122. 
 2            66             0.36        0.29     124 white       9        122. 
 3            74             0.24        0.36     125 white       9        122. 
 4            69             0.36        0.34     127 white       9        122. 
 5            71             0.26        0.49     129 white       9        122. 
 6            62             0.66        0.48     128 white       8         94.1
 7            62             0.66        0.48     128 white       8         94.1
 8            68             0.26        0.42     105 white       8         94.1
 9            67             0.23        0.31     107 white       8         94.1
10            67             0.23        0.31     107 white       8         94.1
# ℹ 1,196 more rows
# ℹ 1 more variable: std_alcohol <dbl>
